client\TestKafkaConsumer.class
client\TestClient.class
interfaces\IRestfulClient.class
client\TestKafkaProducer.class
utility\UtilityProduer.class
client\TestClient2.class
servlet\ExampleRestfulServlet.class
provider\RestfulPatientResourceProvider.class
provider\RestfulObservationResourceProvider.class
provider\RestfulBundleResourceProvider.class
